irigb_pwm.vcd
$comment Generated by Amaranth $end
$date 2024-05-29 10:28:04.580958 $end
$timescale 1 ps $end
$scope module bench $end
$scope module top $end
$var wire 1 ! set_time $end
$var wire 9 " days $end
$var wire 5 # hours $end
$var wire 6 $ minutes $end
$var wire 6 % seconds $end
$var wire 1 & $signal $end
$var wire 1 ' $signal$6 $end
$var wire 1 ( $signal$7 $end
$var wire 1 ) $signal$8 $end
$var wire 1 * $signal$9 $end
$var wire 1 + $signal$10 $end
$var wire 1 , $signal$11 $end
$var wire 1 - $signal$12 $end
$var wire 1 . $signal$13 $end
$var wire 1 / $signal$14 $end
$var wire 1 0 $signal$15 $end
$var wire 1 1 $signal$16 $end
$var wire 1 2 $signal$17 $end
$var wire 1 3 $signal$18 $end
$var wire 1 4 $signal$19 $end
$var wire 1 5 $signal$20 $end
$var wire 1 6 $signal$21 $end
$var wire 1 7 $signal$22 $end
$var wire 1 8 $signal$23 $end
$var wire 1 9 $signal$24 $end
$var wire 1 : $signal$25 $end
$var wire 1 ; $signal$26 $end
$var wire 1 < $signal$27 $end
$var wire 1 = $signal$28 $end
$var wire 1 > $signal$29 $end
$var wire 1 ? $signal$30 $end
$var wire 1 @ $signal$31 $end
$var wire 1 A $signal$32 $end
$var wire 1 B $signal$33 $end
$var wire 1 C $signal$34 $end
$var wire 1 D $signal$35 $end
$var wire 1 E $signal$36 $end
$var wire 1 F $signal$37 $end
$var wire 1 G $signal$38 $end
$var wire 1 H $signal$39 $end
$var wire 1 I $signal$40 $end
$var wire 1 J $signal$41 $end
$var wire 1 K $signal$42 $end
$var wire 1 L $signal$43 $end
$var wire 1 M $signal$44 $end
$var wire 1 N $signal$45 $end
$var wire 1 O rst $end
$var wire 1 P clk $end
$var wire 32 Q total_seconds $end
$var wire 32 R internal_seconds $end
$var wire 14 S clk_counter $end
$var wire 9 T current_day $end
$var wire 5 U current_hour $end
$var wire 6 V current_minute $end
$var wire 6 W current_second $end
$var wire 18 X bin_tod $end
$var wire 4 Y $signal$56 $end
$var wire 4 Z $signal$57 $end
$var wire 4 [ $signal$58 $end
$var wire 4 \ $signal$59 $end
$var wire 4 ] $signal$60 $end
$var wire 4 ^ $signal$61 $end
$var wire 4 _ $signal$62 $end
$var wire 4 ` $signal$63 $end
$var wire 4 a $signal$64 $end
$var wire 7 b bit_clk_counter $end
$var wire 7 c bit_counter $end
$var wire 1 d $signal$67 $end
$var wire 1 e $signal$68 $end
$var wire 1 f $signal$69 $end
$var wire 1 g $signal$70 $end
$var wire 1 h $signal$71 $end
$var wire 1 i $signal$72 $end
$var wire 1 j $signal$73 $end
$var wire 1 k $signal$74 $end
$var wire 1 l $signal$75 $end
$var wire 1 m $signal$76 $end
$var wire 1 n $signal$77 $end
$var wire 1 o $signal$78 $end
$var wire 1 p $signal$79 $end
$var wire 1 q $signal$80 $end
$var wire 1 r $signal$81 $end
$var wire 1 s $signal$82 $end
$var wire 1 t $signal$83 $end
$var wire 1 u $signal$84 $end
$var wire 1 v $signal$85 $end
$var wire 1 w $signal$86 $end
$var wire 1 x $signal$87 $end
$var wire 1 y $signal$88 $end
$var wire 1 z $signal$89 $end
$var wire 1 { $signal$90 $end
$var wire 1 | $signal$91 $end
$var wire 1 } $signal$92 $end
$var wire 1 ~ $signal$93 $end
$var wire 1 !! $signal$94 $end
$var wire 1 "! $signal$95 $end
$var wire 1 #! $signal$96 $end
$var wire 1 $! $signal$97 $end
$var wire 1 %! $signal$98 $end
$var wire 1 &! $signal$99 $end
$var wire 1 '! $signal$100 $end
$var wire 1 (! $signal$101 $end
$var wire 1 )! $signal$102 $end
$var wire 1 *! $signal$103 $end
$var wire 1 +! $signal$104 $end
$var wire 1 ,! $signal$105 $end
$var wire 1 -! $signal$106 $end
$var wire 1 .! $signal$107 $end
$var wire 1 /! $signal$108 $end
$var wire 1 0! $signal$109 $end
$var wire 1 1! $signal$110 $end
$var wire 1 2! $signal$111 $end
$var wire 1 3! $signal$112 $end
$var wire 1 4! $signal$113 $end
$var wire 1 5! $signal$114 $end
$var wire 1 6! $signal$115 $end
$var wire 1 7! $signal$116 $end
$var wire 1 8! $signal$117 $end
$var wire 1 9! $signal$118 $end
$var wire 1 :! $signal$119 $end
$var wire 1 ;! $signal$120 $end
$var wire 1 <! $signal$121 $end
$var wire 1 =! $signal$122 $end
$var wire 1 >! $signal$123 $end
$var wire 1 ?! $signal$124 $end
$var wire 1 @! $signal$125 $end
$var wire 7 A! pulse_width $end
$var wire 1 B! pwm_out $end
$upscope $end
$upscope $end
$enddefinitions $end
#0
$dumpvars
1!
b101101101 "
b10111 #
b111011 $
b111010 %
0&
0'
0(
0)
0*
0+
0,
0-
0.
0/
00
01
02
03
04
05
06
07
08
09
0:
0;
0<
0=
0>
0?
0@
0A
0B
0C
0D
0E
0F
0G
0H
0I
0J
0K
0L
0M
0N
0O
0P
b1111000010011001101111110 Q
b0 R
b0 S
b1 T
b0 U
b0 V
b0 W
b0 X
b0 Y
b0 Z
b0 [
b0 \
b0 ]
b0 ^
b1 _
b0 `
b0 a
b0 b
b0 c
1d
1e
1f
1g
1h
1i
1j
1k
1l
1m
1n
0o
0p
0q
0r
0s
0t
0u
0v
0w
0x
0y
0z
0{
0|
0}
0~
0!!
0"!
0#!
0$!
1%!
0&!
0'!
0(!
0)!
0*!
0+!
0,!
0-!
0.!
0/!
00!
01!
02!
03!
04!
05!
06!
07!
08!
09!
0:!
0;!
0<!
0=!
0>!
0?!
0@!
b1010000 A!
1B!
$end
#50000000
1P
b1111000010011001101111110 R
b1 b
b101101101 T
b10111 U
b111011 V
b111010 W
b10101000101111110 X
b1000 Y
b101 Z
b1001 [
b101 \
b11 ]
b10 ^
b101 _
b110 `
b11 a
10!
11!
12!
13!
14!
15!
17!
1;!
1=!
1?!
1r
1s
1u
1v
1y
1z
1|
1}
1~
1$!
1'!
1*!
1+!
1-!
1.!
#100000000
0P
0!
b0 Q
#150000000
1P
b1 S
b10 b
#200000000
0P
#250000000
1P
b10 S
b11 b
#300000000
0P
#350000000
1P
b11 S
b100 b
#400000000
0P
#450000000
1P
b100 S
b101 b
#500000000
0P
#550000000
1P
b101 S
b110 b
#600000000
0P
#650000000
1P
b110 S
b111 b
#700000000
0P
#750000000
1P
b111 S
b1000 b
#800000000
0P
#850000000
1P
b1000 S
b1001 b
#900000000
0P
#950000000
1P
b1001 S
b1010 b
#1000000000
0P
#1050000000
1P
b1010 S
b1011 b
#1100000000
0P
#1150000000
1P
b1011 S
b1100 b
#1200000000
0P
#1250000000
1P
b1100 S
b1101 b
#1300000000
0P
#1350000000
1P
b1101 S
b1110 b
#1400000000
0P
#1450000000
1P
b1110 S
b1111 b
#1500000000
0P
#1550000000
1P
b1111 S
b10000 b
#1600000000
0P
#1650000000
1P
b10000 S
b10001 b
#1700000000
0P
#1750000000
1P
b10001 S
b10010 b
#1800000000
0P
#1850000000
1P
b10010 S
b10011 b
#1900000000
0P
#1950000000
1P
b10011 S
b10100 b
#2000000000
0P
#2050000000
1P
b10100 S
b10101 b
#2100000000
0P
#2150000000
1P
b10101 S
b10110 b
#2200000000
0P
#2250000000
1P
b10110 S
b10111 b
#2300000000
0P
#2350000000
1P
b10111 S
b11000 b
#2400000000
0P
#2450000000
1P
b11000 S
b11001 b
#2500000000
0P
#2550000000
1P
b11001 S
b11010 b
#2600000000
0P
#2650000000
1P
b11010 S
b11011 b
#2700000000
0P
#2750000000
1P
b11011 S
b11100 b
#2800000000
0P
#2850000000
1P
b11100 S
b11101 b
#2900000000
0P
#2950000000
1P
b11101 S
b11110 b
#3000000000
0P
#3050000000
1P
b11110 S
b11111 b
#3100000000
0P
#3150000000
1P
b11111 S
b100000 b
#3200000000
0P
#3250000000
1P
b100000 S
b100001 b
#3300000000
0P
#3350000000
1P
b100001 S
b100010 b
#3400000000
0P
#3450000000
1P
b100010 S
b100011 b
#3500000000
0P
#3550000000
1P
b100011 S
b100100 b
#3600000000
0P
#3650000000
1P
b100100 S
b100101 b
#3700000000
0P
#3750000000
1P
b100101 S
b100110 b
#3800000000
0P
#3850000000
1P
b100110 S
b100111 b
#3900000000
0P
#3950000000
1P
b100111 S
b101000 b
#4000000000
0P
#4050000000
1P
b101000 S
b101001 b
#4100000000
0P
#4150000000
1P
b101001 S
b101010 b
#4200000000
0P
#4250000000
1P
b101010 S
b101011 b
#4300000000
0P
#4350000000
1P
b101011 S
b101100 b
#4400000000
0P
#4450000000
1P
b101100 S
b101101 b
#4500000000
0P
#4550000000
1P
b101101 S
b101110 b
#4600000000
0P
#4650000000
1P
b101110 S
b101111 b
#4700000000
0P
#4750000000
1P
b101111 S
b110000 b
#4800000000
0P
#4850000000
1P
b110000 S
b110001 b
#4900000000
0P
#4950000000
1P
b110001 S
b110010 b
#5000000000
0P
#5050000000
1P
b110010 S
b110011 b
#5100000000
0P
#5150000000
1P
b110011 S
b110100 b
#5200000000
0P
#5250000000
1P
b110100 S
b110101 b
#5300000000
0P
#5350000000
1P
b110101 S
b110110 b
#5400000000
0P
#5450000000
1P
b110110 S
b110111 b
#5500000000
0P
#5550000000
1P
b110111 S
b111000 b
#5600000000
0P
#5650000000
1P
b111000 S
b111001 b
#5700000000
0P
#5750000000
1P
b111001 S
b111010 b
#5800000000
0P
#5850000000
1P
b111010 S
b111011 b
#5900000000
0P
#5950000000
1P
b111011 S
b111100 b
#6000000000
0P
#6050000000
1P
b111100 S
b111101 b
#6100000000
0P
#6150000000
1P
b111101 S
b111110 b
#6200000000
0P
#6250000000
1P
b111110 S
b111111 b
#6300000000
0P
#6350000000
1P
b111111 S
b1000000 b
#6400000000
0P
#6450000000
1P
b1000000 S
b1000001 b
#6500000000
0P
#6550000000
1P
b1000001 S
b1000010 b
#6600000000
0P
#6650000000
1P
b1000010 S
b1000011 b
#6700000000
0P
#6750000000
1P
b1000011 S
b1000100 b
#6800000000
0P
#6850000000
1P
b1000100 S
b1000101 b
#6900000000
0P
#6950000000
1P
b1000101 S
b1000110 b
#7000000000
0P
#7050000000
1P
b1000110 S
b1000111 b
#7100000000
0P
#7150000000
1P
b1000111 S
b1001000 b
#7200000000
0P
#7250000000
1P
b1001000 S
b1001001 b
#7300000000
0P
#7350000000
1P
b1001001 S
b1001010 b
#7400000000
0P
#7450000000
1P
b1001010 S
b1001011 b
#7500000000
0P
#7550000000
1P
b1001011 S
b1001100 b
#7600000000
0P
#7650000000
1P
b1001100 S
b1001101 b
#7700000000
0P
#7750000000
1P
b1001101 S
b1001110 b
#7800000000
0P
#7850000000
1P
b1001110 S
b1001111 b
#7900000000
0P
#7950000000
1P
b1001111 S
b1010000 b
0B!
#8000000000
0P
#8050000000
1P
b1010000 S
b1010001 b
#8100000000
0P
#8150000000
1P
b1010001 S
b1010010 b
#8200000000
0P
#8250000000
1P
b1010010 S
b1010011 b
#8300000000
0P
#8350000000
1P
b1010011 S
b1010100 b
#8400000000
0P
#8450000000
1P
b1010100 S
b1010101 b
#8500000000
0P
#8550000000
1P
b1010101 S
b1010110 b
#8600000000
0P
#8650000000
1P
b1010110 S
b1010111 b
#8700000000
0P
#8750000000
1P
b1010111 S
b1011000 b
#8800000000
0P
#8850000000
1P
b1011000 S
b1011001 b
#8900000000
0P
#8950000000
1P
b1011001 S
b1011010 b
#9000000000
0P
#9050000000
1P
b1011010 S
b1011011 b
#9100000000
0P
#9150000000
1P
b1011011 S
b1011100 b
#9200000000
0P
#9250000000
1P
b1011100 S
b1011101 b
#9300000000
0P
#9350000000
1P
b1011101 S
b1011110 b
#9400000000
0P
#9450000000
1P
b1011110 S
b1011111 b
#9500000000
0P
#9550000000
1P
b1011111 S
b1100000 b
#9600000000
0P
#9650000000
1P
b1100000 S
b1100001 b
#9700000000
0P
#9750000000
1P
b1100001 S
b1100010 b
#9800000000
0P
#9850000000
1P
b1100010 S
b1100011 b
#9900000000
0P
#9950000000
1P
b1100011 S
b0 b
b1 c
b10100 A!
1B!
#10000000000
0P
#10050000000
1P
b1100100 S
b1 b
#10100000000
0P
#10150000000
1P
b1100101 S
b10 b
#10200000000
0P
#10250000000
1P
b1100110 S
b11 b
#10300000000
0P
#10350000000
1P
b1100111 S
b100 b
#10400000000
0P
#10450000000
1P
b1101000 S
b101 b
#10500000000
0P
#10550000000
1P
b1101001 S
b110 b
#10600000000
0P
#10650000000
1P
b1101010 S
b111 b
#10700000000
0P
#10750000000
1P
b1101011 S
b1000 b
#10800000000
0P
#10850000000
1P
b1101100 S
b1001 b
#10900000000
0P
#10950000000
1P
b1101101 S
b1010 b
#11000000000
0P
#11050000000
1P
b1101110 S
b1011 b
#11100000000
0P
#11150000000
1P
b1101111 S
b1100 b
#11200000000
0P
#11250000000
1P
b1110000 S
b1101 b
#11300000000
0P
#11350000000
1P
b1110001 S
b1110 b
#11400000000
0P
#11450000000
1P
b1110010 S
b1111 b
#11500000000
0P
#11550000000
1P
b1110011 S
b10000 b
#11600000000
0P
#11650000000
1P
b1110100 S
b10001 b
#11700000000
0P
#11750000000
1P
b1110101 S
b10010 b
#11800000000
0P
#11850000000
1P
b1110110 S
b10011 b
#11900000000
0P
#11950000000
1P
b1110111 S
b10100 b
0B!
#12000000000
0P
#12050000000
1P
b1111000 S
b10101 b
#12100000000
0P
#12150000000
1P
b1111001 S
b10110 b
#12200000000
0P
#12250000000
1P
b1111010 S
b10111 b
#12300000000
0P
#12350000000
1P
b1111011 S
b11000 b
#12400000000
0P
#12450000000
1P
b1111100 S
b11001 b
#12500000000
0P
#12550000000
1P
b1111101 S
b11010 b
#12600000000
0P
#12650000000
1P
b1111110 S
b11011 b
#12700000000
0P
#12750000000
1P
b1111111 S
b11100 b
#12800000000
0P
#12850000000
1P
b10000000 S
b11101 b
#12900000000
0P
#12950000000
1P
b10000001 S
b11110 b
#13000000000
0P
#13050000000
1P
b10000010 S
b11111 b
#13100000000
0P
#13150000000
1P
b10000011 S
b100000 b
#13200000000
0P
#13250000000
1P
b10000100 S
b100001 b
#13300000000
0P
#13350000000
1P
b10000101 S
b100010 b
#13400000000
0P
#13450000000
1P
b10000110 S
b100011 b
#13500000000
0P
#13550000000
1P
b10000111 S
b100100 b
#13600000000
0P
#13650000000
1P
b10001000 S
b100101 b
#13700000000
0P
#13750000000
1P
b10001001 S
b100110 b
#13800000000
0P
#13850000000
1P
b10001010 S
b100111 b
#13900000000
0P
#13950000000
1P
b10001011 S
b101000 b
#14000000000
0P
#14050000000
1P
b10001100 S
b101001 b
#14100000000
0P
#14150000000
1P
b10001101 S
b101010 b
#14200000000
0P
#14250000000
1P
b10001110 S
b101011 b
#14300000000
0P
#14350000000
1P
b10001111 S
b101100 b
#14400000000
0P
#14450000000
1P
b10010000 S
b101101 b
#14500000000
0P
#14550000000
1P
b10010001 S
b101110 b
#14600000000
0P
#14650000000
1P
b10010010 S
b101111 b
#14700000000
0P
#14750000000
1P
b10010011 S
b110000 b
#14800000000
0P
#14850000000
1P
b10010100 S
b110001 b
#14900000000
0P
#14950000000
1P
b10010101 S
b110010 b
#15000000000
0P
#15050000000
1P
b10010110 S
b110011 b
#15100000000
0P
#15150000000
1P
b10010111 S
b110100 b
#15200000000
0P
#15250000000
1P
b10011000 S
b110101 b
#15300000000
0P
#15350000000
1P
b10011001 S
b110110 b
#15400000000
0P
#15450000000
1P
b10011010 S
b110111 b
#15500000000
0P
#15550000000
1P
b10011011 S
b111000 b
#15600000000
0P
#15650000000
1P
b10011100 S
b111001 b
#15700000000
0P
#15750000000
1P
b10011101 S
b111010 b
#15800000000
0P
#15850000000
1P
b10011110 S
b111011 b
#15900000000
0P
#15950000000
1P
b10011111 S
b111100 b
#16000000000
0P
#16050000000
1P
b10100000 S
b111101 b
#16100000000
0P
#16150000000
1P
b10100001 S
b111110 b
#16200000000
0P
#16250000000
1P
b10100010 S
b111111 b
#16300000000
0P
#16350000000
1P
b10100011 S
b1000000 b
#16400000000
0P
#16450000000
1P
b10100100 S
b1000001 b
#16500000000
0P
#16550000000
1P
b10100101 S
b1000010 b
#16600000000
0P
#16650000000
1P
b10100110 S
b1000011 b
#16700000000
0P
#16750000000
1P
b10100111 S
b1000100 b
#16800000000
0P
#16850000000
1P
b10101000 S
b1000101 b
#16900000000
0P
#16950000000
1P
b10101001 S
b1000110 b
#17000000000
0P
#17050000000
1P
b10101010 S
b1000111 b
#17100000000
0P
#17150000000
1P
b10101011 S
b1001000 b
#17200000000
0P
#17250000000
1P
b10101100 S
b1001001 b
#17300000000
0P
#17350000000
1P
b10101101 S
b1001010 b
#17400000000
0P
#17450000000
1P
b10101110 S
b1001011 b
#17500000000
0P
#17550000000
1P
b10101111 S
b1001100 b
#17600000000
0P
#17650000000
1P
b10110000 S
b1001101 b
#17700000000
0P
#17750000000
1P
b10110001 S
b1001110 b
#17800000000
0P
#17850000000
1P
b10110010 S
b1001111 b
#17900000000
0P
#17950000000
1P
b10110011 S
b1010000 b
#18000000000
0P
#18050000000
1P
b10110100 S
b1010001 b
#18100000000
0P
#18150000000
1P
b10110101 S
b1010010 b
#18200000000
0P
#18250000000
1P
b10110110 S
b1010011 b
#18300000000
0P
#18350000000
1P
b10110111 S
b1010100 b
#18400000000
0P
#18450000000
1P
b10111000 S
b1010101 b
#18500000000
0P
#18550000000
1P
b10111001 S
b1010110 b
#18600000000
0P
#18650000000
1P
b10111010 S
b1010111 b
#18700000000
0P
#18750000000
1P
b10111011 S
b1011000 b
#18800000000
0P
#18850000000
1P
b10111100 S
b1011001 b
#18900000000
0P
#18950000000
1P
b10111101 S
b1011010 b
#19000000000
0P
#19050000000
1P
b10111110 S
b1011011 b
#19100000000
0P
#19150000000
1P
b10111111 S
b1011100 b
#19200000000
0P
#19250000000
1P
b11000000 S
b1011101 b
#19300000000
0P
#19350000000
1P
b11000001 S
b1011110 b
#19400000000
0P
#19450000000
1P
b11000010 S
b1011111 b
#19500000000
0P
#19550000000
1P
b11000011 S
b1100000 b
#19600000000
0P
#19650000000
1P
b11000100 S
b1100001 b
#19700000000
0P
#19750000000
1P
b11000101 S
b1100010 b
#19800000000
0P
#19850000000
1P
b11000110 S
b1100011 b
#19900000000
0P
#19950000000
1P
b11000111 S
b0 b
b10 c
1B!
#20000000000
0P
#20050000000
1P
b11001000 S
b1 b
#20100000000
0P
#20150000000
1P
b11001001 S
b10 b
#20200000000
0P
#20250000000
1P
b11001010 S
b11 b
#20300000000
0P
#20350000000
1P
b11001011 S
b100 b
#20400000000
0P
#20450000000
1P
b11001100 S
b101 b
#20500000000
0P
#20550000000
1P
b11001101 S
b110 b
#20600000000
0P
#20650000000
1P
b11001110 S
b111 b
#20700000000
0P
#20750000000
1P
b11001111 S
b1000 b
#20800000000
0P
#20850000000
1P
b11010000 S
b1001 b
#20900000000
0P
#20950000000
1P
b11010001 S
b1010 b
#21000000000
0P
#21050000000
1P
b11010010 S
b1011 b
#21100000000
0P
#21150000000
1P
b11010011 S
b1100 b
#21200000000
0P
#21250000000
1P
b11010100 S
b1101 b
#21300000000
0P
#21350000000
1P
b11010101 S
b1110 b
#21400000000
0P
#21450000000
1P
b11010110 S
b1111 b
#21500000000
0P
#21550000000
1P
b11010111 S
b10000 b
#21600000000
0P
#21650000000
1P
b11011000 S
b10001 b
#21700000000
0P
#21750000000
1P
b11011001 S
b10010 b
#21800000000
0P
#21850000000
1P
b11011010 S
b10011 b
#21900000000
0P
#21950000000
1P
b11011011 S
b10100 b
0B!
#22000000000
0P
#22050000000
1P
b11011100 S
b10101 b
#22100000000
0P
#22150000000
1P
b11011101 S
b10110 b
#22200000000
0P
#22250000000
1P
b11011110 S
b10111 b
#22300000000
0P
#22350000000
1P
b11011111 S
b11000 b
#22400000000
0P
#22450000000
1P
b11100000 S
b11001 b
#22500000000
0P
#22550000000
1P
b11100001 S
b11010 b
#22600000000
0P
#22650000000
1P
b11100010 S
b11011 b
#22700000000
0P
#22750000000
1P
b11100011 S
b11100 b
#22800000000
0P
#22850000000
1P
b11100100 S
b11101 b
#22900000000
0P
#22950000000
1P
b11100101 S
b11110 b
#23000000000
0P
#23050000000
1P
b11100110 S
b11111 b
#23100000000
0P
#23150000000
1P
b11100111 S
b100000 b
#23200000000
0P
#23250000000
1P
b11101000 S
b100001 b
#23300000000
0P
#23350000000
1P
b11101001 S
b100010 b
#23400000000
0P
#23450000000
1P
b11101010 S
b100011 b
#23500000000
0P
#23550000000
1P
b11101011 S
b100100 b
#23600000000
0P
#23650000000
1P
b11101100 S
b100101 b
#23700000000
0P
#23750000000
1P
b11101101 S
b100110 b
#23800000000
0P
#23850000000
1P
b11101110 S
b100111 b
#23900000000
0P
#23950000000
1P
b11101111 S
b101000 b
#24000000000
0P
#24050000000
1P
b11110000 S
b101001 b
#24100000000
0P
#24150000000
1P
b11110001 S
b101010 b
#24200000000
0P
#24250000000
1P
b11110010 S
b101011 b
#24300000000
0P
#24350000000
1P
b11110011 S
b101100 b
#24400000000
0P
#24450000000
1P
b11110100 S
b101101 b
#24500000000
0P
#24550000000
1P
b11110101 S
b101110 b
#24600000000
0P
#24650000000
1P
b11110110 S
b101111 b
#24700000000
0P
#24750000000
1P
b11110111 S
b110000 b
#24800000000
0P
#24850000000
1P
b11111000 S
b110001 b
#24900000000
0P
#24950000000
1P
b11111001 S
b110010 b
#25000000000
0P
#25050000000
1P
b11111010 S
b110011 b
#25100000000
0P
#25150000000
1P
b11111011 S
b110100 b
#25200000000
0P
#25250000000
1P
b11111100 S
b110101 b
#25300000000
0P
#25350000000
1P
b11111101 S
b110110 b
#25400000000
0P
#25450000000
1P
b11111110 S
b110111 b
#25500000000
0P
#25550000000
1P
b11111111 S
b111000 b
#25600000000
0P
#25650000000
1P
b100000000 S
b111001 b
#25700000000
0P
#25750000000
1P
b100000001 S
b111010 b
#25800000000
0P
#25850000000
1P
b100000010 S
b111011 b
#25900000000
0P
#25950000000
1P
b100000011 S
b111100 b
#26000000000
0P
#26050000000
1P
b100000100 S
b111101 b
#26100000000
0P
#26150000000
1P
b100000101 S
b111110 b
#26200000000
0P
#26250000000
1P
b100000110 S
b111111 b
#26300000000
0P
#26350000000
1P
b100000111 S
b1000000 b
#26400000000
0P
#26450000000
1P
b100001000 S
b1000001 b
#26500000000
0P
#26550000000
1P
b100001001 S
b1000010 b
#26600000000
0P
#26650000000
1P
b100001010 S
b1000011 b
#26700000000
0P
#26750000000
1P
b100001011 S
b1000100 b
#26800000000
0P
#26850000000
1P
b100001100 S
b1000101 b
#26900000000
0P
#26950000000
1P
b100001101 S
b1000110 b
#27000000000
0P
#27050000000
1P
b100001110 S
b1000111 b
#27100000000
0P
#27150000000
1P
b100001111 S
b1001000 b
#27200000000
0P
#27250000000
1P
b100010000 S
b1001001 b
#27300000000
0P
#27350000000
1P
b100010001 S
b1001010 b
#27400000000
0P
#27450000000
1P
b100010010 S
b1001011 b
#27500000000
0P
#27550000000
1P
b100010011 S
b1001100 b
#27600000000
0P
#27650000000
1P
b100010100 S
b1001101 b
#27700000000
0P
#27750000000
1P
b100010101 S
b1001110 b
#27800000000
0P
#27850000000
1P
b100010110 S
b1001111 b
#27900000000
0P
#27950000000
1P
b100010111 S
b1010000 b
#28000000000
0P
#28050000000
1P
b100011000 S
b1010001 b
#28100000000
0P
#28150000000
1P
b100011001 S
b1010010 b
#28200000000
0P
#28250000000
1P
b100011010 S
b1010011 b
#28300000000
0P
#28350000000
1P
b100011011 S
b1010100 b
#28400000000
0P
#28450000000
1P
b100011100 S
b1010101 b
#28500000000
0P
#28550000000
1P
b100011101 S
b1010110 b
#28600000000
0P
#28650000000
1P
b100011110 S
b1010111 b
#28700000000
0P
#28750000000
1P
b100011111 S
b1011000 b
#28800000000
0P
#28850000000
1P
b100100000 S
b1011001 b
#28900000000
0P
#28950000000
1P
b100100001 S
b1011010 b
#29000000000
0P
#29050000000
1P
b100100010 S
b1011011 b
#29100000000
0P
#29150000000
1P
b100100011 S
b1011100 b
#29200000000
0P
#29250000000
1P
b100100100 S
b1011101 b
#29300000000
0P
#29350000000
1P
b100100101 S
b1011110 b
#29400000000
0P
#29450000000
1P
b100100110 S
b1011111 b
#29500000000
0P
#29550000000
1P
b100100111 S
b1100000 b
#29600000000
0P
#29650000000
1P
b100101000 S
b1100001 b
#29700000000
0P
#29750000000
1P
b100101001 S
b1100010 b
#29800000000
0P
#29850000000
1P
b100101010 S
b1100011 b
#29900000000
0P
#29950000000
1P
b100101011 S
b0 b
b11 c
1B!
#30000000000
0P
#30050000000
1P
b100101100 S
b1 b
#30100000000
0P
#30150000000
1P
b100101101 S
b10 b
#30200000000
0P
#30250000000
1P
b100101110 S
b11 b
#30300000000
0P
#30350000000
1P
b100101111 S
b100 b
#30400000000
0P
#30450000000
1P
b100110000 S
b101 b
#30500000000
0P
#30550000000
1P
b100110001 S
b110 b
#30600000000
0P
#30650000000
1P
b100110010 S
b111 b
#30700000000
0P
#30750000000
1P
b100110011 S
b1000 b
#30800000000
0P
#30850000000
1P
b100110100 S
b1001 b
#30900000000
0P
#30950000000
1P
b100110101 S
b1010 b
#31000000000
0P
#31050000000
1P
b100110110 S
b1011 b
#31100000000
0P
#31150000000
1P
b100110111 S
b1100 b
#31200000000
0P
#31250000000
1P
b100111000 S
b1101 b
#31300000000
0P
#31350000000
1P
b100111001 S
b1110 b
#31400000000
0P
#31450000000
1P
b100111010 S
b1111 b
#31500000000
0P
#31550000000
1P
b100111011 S
b10000 b
#31600000000
0P
#31650000000
1P
b100111100 S
b10001 b
#31700000000
0P
#31750000000
1P
b100111101 S
b10010 b
#31800000000
0P
#31850000000
1P
b100111110 S
b10011 b
#31900000000
0P
#31950000000
1P
b100111111 S
b10100 b
0B!
#32000000000
0P
#32050000000
1P
b101000000 S
b10101 b
#32100000000
0P
#32150000000
1P
b101000001 S
b10110 b
#32200000000
0P
#32250000000
1P
b101000010 S
b10111 b
#32300000000
0P
#32350000000
1P
b101000011 S
b11000 b
#32400000000
0P
#32450000000
1P
b101000100 S
b11001 b
#32500000000
0P
#32550000000
1P
b101000101 S
b11010 b
#32600000000
0P
#32650000000
1P
b101000110 S
b11011 b
#32700000000
0P
#32750000000
1P
b101000111 S
b11100 b
#32800000000
0P
#32850000000
1P
b101001000 S
b11101 b
#32900000000
0P
#32950000000
1P
b101001001 S
b11110 b
#33000000000
0P
#33050000000
1P
b101001010 S
b11111 b
#33100000000
0P
#33150000000
1P
b101001011 S
b100000 b
#33200000000
0P
#33250000000
1P
b101001100 S
b100001 b
#33300000000
0P
#33350000000
1P
b101001101 S
b100010 b
#33400000000
0P
#33450000000
1P
b101001110 S
b100011 b
#33500000000
0P
#33550000000
1P
b101001111 S
b100100 b
#33600000000
0P
#33650000000
1P
b101010000 S
b100101 b
#33700000000
0P
#33750000000
1P
b101010001 S
b100110 b
#33800000000
0P
#33850000000
1P
b101010010 S
b100111 b
#33900000000
0P
#33950000000
1P
b101010011 S
b101000 b
#34000000000
0P
#34050000000
1P
b101010100 S
b101001 b
#34100000000
0P
#34150000000
1P
b101010101 S
b101010 b
#34200000000
0P
#34250000000
1P
b101010110 S
b101011 b
#34300000000
0P
#34350000000
1P
b101010111 S
b101100 b
#34400000000
0P
#34450000000
1P
b101011000 S
b101101 b
#34500000000
0P
#34550000000
1P
b101011001 S
b101110 b
#34600000000
0P
#34650000000
1P
b101011010 S
b101111 b
#34700000000
0P
#34750000000
1P
b101011011 S
b110000 b
#34800000000
0P
#34850000000
1P
b101011100 S
b110001 b
#34900000000
0P
#34950000000
1P
b101011101 S
b110010 b
#35000000000
0P
#35050000000
1P
b101011110 S
b110011 b
#35100000000
0P
#35150000000
1P
b101011111 S
b110100 b
#35200000000
0P
#35250000000
1P
b101100000 S
b110101 b
#35300000000
0P
#35350000000
1P
b101100001 S
b110110 b
#35400000000
0P
#35450000000
1P
b101100010 S
b110111 b
#35500000000
0P
#35550000000
1P
b101100011 S
b111000 b
#35600000000
0P
#35650000000
1P
b101100100 S
b111001 b
#35700000000
0P
#35750000000
1P
b101100101 S
b111010 b
#35800000000
0P
#35850000000
1P
b101100110 S
b111011 b
#35900000000
0P
#35950000000
1P
b101100111 S
b111100 b
#36000000000
0P
#36050000000
1P
b101101000 S
b111101 b
#36100000000
0P
#36150000000
1P
b101101001 S
b111110 b
#36200000000
0P
#36250000000
1P
b101101010 S
b111111 b
#36300000000
0P
#36350000000
1P
b101101011 S
b1000000 b
#36400000000
0P
#36450000000
1P
b101101100 S
b1000001 b
#36500000000
0P
#36550000000
1P
b101101101 S
b1000010 b
#36600000000
0P
#36650000000
1P
b101101110 S
b1000011 b
#36700000000
0P
#36750000000
1P
b101101111 S
b1000100 b
#36800000000
0P
#36850000000
1P
b101110000 S
b1000101 b
#36900000000
0P
#36950000000
1P
b101110001 S
b1000110 b
#37000000000
0P
#37050000000
1P
b101110010 S
b1000111 b
#37100000000
0P
#37150000000
1P
b101110011 S
b1001000 b
#37200000000
0P
#37250000000
1P
b101110100 S
b1001001 b
#37300000000
0P
#37350000000
1P
b101110101 S
b1001010 b
#37400000000
0P
#37450000000
1P
b101110110 S
b1001011 b
#37500000000
0P
#37550000000
1P
b101110111 S
b1001100 b
#37600000000
0P
#37650000000
1P
b101111000 S
b1001101 b
#37700000000
0P
#37750000000
1P
b101111001 S
b1001110 b
#37800000000
0P
#37850000000
1P
b101111010 S
b1001111 b
#37900000000
0P
#37950000000
1P
b101111011 S
b1010000 b
#38000000000
0P
#38050000000
1P
b101111100 S
b1010001 b
#38100000000
0P
#38150000000
1P
b101111101 S
b1010010 b
#38200000000
0P
#38250000000
1P
b101111110 S
b1010011 b
#38300000000
0P
#38350000000
1P
b101111111 S
b1010100 b
#38400000000
0P
#38450000000
1P
b110000000 S
b1010101 b
#38500000000
0P
#38550000000
1P
b110000001 S
b1010110 b
#38600000000
0P
